pdxasset (int, 2):  [1, 0]
info:
    fps (float, 1):  [16.0]
    sa (int, 1):  [7]
    j (int, 1):  [11]
    tail_root:
        sa (str, 1):  ['qs']
        t (float, 3):  [6.617444900424222e-24, -0.0814666822552681, -0.23635536432266235]
        q (float, 4):  [-0.15305615961551666, 5.937203328396133e-16, 2.2376079293784203e-17, 0.9882175922393799]
        s (float, 1):  [0.699999988079071]
    bn_tail_01:
        sa (str, 1):  ['tqs']
        t (float, 3):  [-6.617444900424221e-22, -5.168840289115906e-07, 12.171323776245117]
        q (float, 4):  [0.15148133039474487, -5.996652865194769e-16, 1.8042413890169886e-17, 0.988460123538971]
        s (float, 1):  [1.0]
    bn_tail_02:
        sa (str, 1):  ['tqs']
        t (float, 3):  [6.4685523901646764e-21, 4.090368747711182e-06, 11.856572151184082]
        q (float, 4):  [4.607404116541147e-05, -1.3490204266791763e-20, 1.4130127021416698e-23, 1.0]
        s (float, 1):  [1.0]
    bn_tail_03:
        sa (str, 1):  ['tqs']
        t (float, 3):  [-1.4224197813461864e-20, 5.438923835754395e-07, 12.20810604095459]
        q (float, 4):  [0.0019950862042605877, -6.106050826470969e-19, 8.541757482740528e-23, 0.9999980330467224]
        s (float, 1):  [0.9999999403953552]
    bn_tail_04:
        sa (str, 1):  ['tqs']
        t (float, 3):  [1.572304908340795e-20, 2.5257468223571777e-06, 12.15231990814209]
        q (float, 4):  [-8.104399057629053e-06, 2.37162213583043e-21, -9.864762417773929e-24, 1.0]
        s (float, 1):  [1.0]
    bn_tail_05:
        sa (str, 1):  ['tqs']
        t (float, 3):  [1.9625687213433135e-20, -1.0766088962554932e-06, 12.37119197845459]
        q (float, 4):  [-0.0013341885060071945, 4.079802381152085e-19, 2.054680366601855e-23, 0.9999991059303284]
        s (float, 1):  [1.0]
    bn_tail_06:
        sa (str, 1):  ['tqs']
        t (float, 3):  [1.3085997290588898e-20, 1.9222497940063477e-06, 12.160582542419434]
        q (float, 4):  [1.1682395779644139e-05, -2.6707436508060327e-21, -1.245509290742842e-23, 1.0]
        s (float, 1):  [0.9999999403953552]
    bn_tail_07:
        sa (str, 1):  ['tqs']
        t (float, 3):  [-9.75080506077509e-21, 1.0132789611816406e-06, 12.322446823120117]
        q (float, 4):  [0.0008828611462377012, -2.7030582207613696e-19, 1.987798214702321e-23, 0.9999997019767761]
        s (float, 1):  [1.0]
    bn_tail_08:
        sa (str, 1):  ['tqs']
        t (float, 3):  [-9.07077050878987e-22, -3.0443823106907075e-07, 12.1905517578125]
        q (float, 4):  [1.338772759318374e-09, -2.153026482225162e-25, 2.341931047473749e-31, 1.0]
        s (float, 1):  [0.9999999403953552]
    bn_tail_09:
        sa (str, 1):  ['tqs']
        t (float, 3):  [-2.120229507654634e-21, -3.1576473702443764e-07, 12.314987182617188]
        q (float, 4):  [-0.0023138283286243677, 7.081488054187641e-19, 3.958345619129269e-23, 0.9999973177909851]
        s (float, 1):  [0.9999999403953552]
    bn_tail_10:
        sa (str, 1):  ['tqs']
        t (float, 3):  [-1.7033303173691946e-20, -1.2516975402832031e-06, 8.164494514465332]
        q (float, 4):  [0.0005519205005839467, -1.7124479156710603e-19, 1.774752916611998e-23, 0.9999998807907104]
        s (float, 1):  [1.0]
samples:
    t (float, 210):  [-6.617444900424221e-22, -5.168840289115906e-07, 12.171323776245117, 6.4685523901646764e-21, 4.090368747711182e-06, 11.856572151184082, -1.4224197813461864e-20, 5.438923835754395e-07, 12.20810604095459, 1.572304908340795e-20, 2.5257468223571777e-06, 12.15231990814209, 1.9625687213433135e-20, -1.0766088962554932e-06, 12.37119197845459, 1.3085997290588898e-20, 1.9222497940063477e-06, 12.160582542419434, -9.75080506077509e-21, 1.0132789611816406e-06, 12.322446823120117, -9.07077050878987e-22, -3.0443823106907075e-07, 12.1905517578125, -2.120229507654634e-21, -3.1576473702443764e-07, 12.314987182617188, -1.7033303173691946e-20, -1.2516975402832031e-06, 8.164494514465332, -3.758708703440958e-21, -8.437782526016235e-07, 12.17132568359375, 6.38748869013448e-21, 3.0472874641418457e-06, 11.8565673828125, -1.3665023719376017e-20, 4.172325134277344e-07, 12.208101272583008, 1.6593243087813735e-20, 2.9616057872772217e-06, 12.152321815490723, 1.6316964763221024e-20, -1.4454126358032227e-06, 12.371193885803223, 1.3016514119134443e-20, 2.3543834686279297e-06, 12.160572052001953, -8.65230920730467e-21, 7.599592208862305e-07, 12.3224515914917, 2.6643889407632577e-22, 2.1703436914322083e-07, 12.1905517578125, -1.5932427560373301e-21, 4.449611026302591e-07, 12.314964294433594, -1.556423040579777e-20, -1.3709068298339844e-06, 8.164488792419434, -3.1234339930002325e-21, -2.9383227229118347e-07, 12.17132568359375, 5.6033214694342095e-21, 3.762543201446533e-06, 11.85657024383545, -1.0372844881414967e-20, 3.3527612686157227e-07, 12.208097457885742, 1.4738704154469847e-20, 3.0212104320526123e-06, 12.152323722839355, 1.813841647206279e-20, -9.57399606704712e-07, 12.371188163757324, 1.0379462326315391e-20, 2.175569534301758e-06, 12.160581588745117, -1.0687173514185118e-20, 1.2367963790893555e-06, 12.3224458694458, -2.772571280577801e-21, 2.0657262211898342e-07, 12.190544128417969, -2.525858200535325e-21, 3.468788918326027e-07, 12.314987182617188, -1.6503907581658008e-20, -1.3113021850585938e-06, 8.164478302001953, -4.314574075076592e-21, -1.178588718175888e-06, 12.171326637268066, 6.094666753290708e-21, 3.6954879760742188e-06, 11.85657024383545, -1.457823111563456e-20, 1.2069940567016602e-06, 12.208098411560059, 1.534833626592143e-20, 3.2670795917510986e-06, 12.152326583862305, 1.5246593050577406e-20, -9.94652509689331e-07, 12.371184349060059, 1.2351460906641809e-20, 2.130866050720215e-06, 12.160579681396484, -1.0051898803744392e-20, 7.599592208862305e-07, 12.322454452514648, 8.881730658253093e-22, -4.7464294539167895e-07, 12.190536499023438, -2.1239243554298464e-21, 2.536435417255234e-08, 12.314987182617188, -1.6689196038869886e-20, -1.0728836059570312e-06, 8.164480209350586, -3.864587821847745e-21, -1.4621764421463013e-06, 12.171326637268066, 4.850587112010954e-21, 2.8833746910095215e-06, 11.8565673828125, -1.2718729098615354e-20, 1.3783574104309082e-06, 12.208099365234375, 1.6160627627448502e-20, 3.4123659133911133e-06, 12.152329444885254, 1.5718085999732632e-20, -2.2351741790771484e-07, 12.371193885803223, 1.1918018265664023e-20, 2.3692846298217773e-06, 12.160567283630371, -1.0614381620280451e-20, 6.705522537231445e-07, 12.322457313537598, -7.176955541504897e-22, -2.0895856778224697e-07, 12.190536499023438, -2.2982821539905905e-21, 4.418994308252877e-07, 12.314994812011719, -1.4095157637903592e-20, -6.556510925292969e-07, 8.164474487304688, -3.679299364635867e-21, -5.00120222568512e-07, 12.171327590942383, 3.8099939014192455e-21, 3.4868717193603516e-06, 11.85657024383545, -1.1795595535006175e-20, 1.4007091522216797e-06, 12.208099365234375, 1.7254987577856157e-20, 2.78279185295105e-06, 12.152323722839355, 1.8148342639413427e-20, -5.736947059631348e-07, 12.371180534362793, 1.2851077996623838e-20, 1.519918441772461e-06, 12.160574913024902, -8.043504276465641e-21, 7.897615432739258e-07, 12.322461128234863, -3.34439461412846e-22, -8.0489240872339e-07, 12.190528869628906, -2.0628915124792175e-21, -4.7649479029132635e-08, 12.314987182617188, -1.503483481376383e-20, -5.960464477539062e-07, 8.164488792419434, -5.770411953169921e-21, -1.1115334928035736e-06, 12.171327590942383, 5.20462041418365e-21, 3.5688281059265137e-06, 11.856573104858398, -1.1431636065482842e-20, 1.55717134475708e-06, 12.20809268951416, 1.6548575334735872e-20, 3.382563591003418e-06, 12.152329444885254, 1.0199136952778831e-20, -1.0654330253601074e-06, 12.371190071105957, 7.533961019132976e-21, 1.4603137969970703e-06, 12.160567283630371, -5.2774123080883166e-21, 8.344650268554688e-07, 12.322449684143066, 2.1369112526056423e-21, -3.688967353809858e-07, 12.190528869628906, -6.828259634351603e-21, 3.618592927523423e-07, 12.314994812011719, -1.920382510103109e-20, -1.0132789611816406e-06, 8.164484024047852]
    q (float, 308):  [-0.15305615961551666, 5.937203328396133e-16, 2.2376079293784203e-17, 0.9882175922393799, 0.15148133039474487, -5.996652865194769e-16, 1.8042413890169886e-17, 0.988460123538971, 4.607404116541147e-05, -1.3490204266791763e-20, 1.4130127021416698e-23, 1.0, 0.0019950862042605877, -6.106050826470969e-19, 8.541757482740528e-23, 0.9999980330467224, -8.104399057629053e-06, 2.37162213583043e-21, -9.864762417773929e-24, 1.0, -0.0013341885060071945, 4.079802381152085e-19, 2.054680366601855e-23, 0.9999991059303284, 1.1682395779644139e-05, -2.6707436508060327e-21, -1.245509290742842e-23, 1.0, 0.0008828611462377012, -2.7030582207613696e-19, 1.987798214702321e-23, 0.9999997019767761, 1.338772759318374e-09, -2.153026482225162e-25, 2.341931047473749e-31, 1.0, -0.0023138283286243677, 7.081488054187641e-19, 3.958345619129269e-23, 0.9999973177909851, 0.0005519205005839467, -1.7124479156710603e-19, 1.774752916611998e-23, 0.9999998807907104, -0.15305615961551666, 5.937203328396133e-16, 2.2376079293784203e-17, 0.9882175922393799, 0.15148133039474487, -5.996653923985953e-16, 1.8042420507614787e-17, 0.988460123538971, 4.607428127201274e-05, -1.3490264043515717e-20, 9.115447504162099e-25, 1.0, 0.0019950864370912313, -6.106051343458852e-19, 8.700102061257559e-23, 0.9999980926513672, -8.104368134809192e-06, 2.37162213583043e-21, -1.1523919128322822e-23, 1.0, -0.0013341883895918727, 4.079802381152085e-19, 2.721842753341335e-23, 0.9999991059303284, 1.1682450349326245e-05, -2.6707561716063203e-21, -1.4099708544911375e-23, 1.0, 0.000882861262653023, -2.7030582207613696e-19, 1.488586365722748e-23, 0.9999997019767761, 1.3387736474967937e-09, -2.152989011332164e-25, 3.308722450212111e-24, 1.0, -0.0023138285614550114, 7.081489088163407e-19, 4.1340514484484036e-23, 0.9999973177909851, 0.0005519209080375731, -1.7124473986831775e-19, 1.2786767897306784e-23, 0.9999998807907104, -0.15305615961551666, 5.937203328396133e-16, 2.2376079293784203e-17, 0.9882175922393799, 0.15148131549358368, -5.996653394590361e-16, 1.8042427125059687e-17, 0.988460123538971, 4.607439768733457e-05, -1.3490205882378897e-20, 7.423472207803748e-24, 1.0, 0.0019950864370912313, -6.106051860446735e-19, 8.700379740296196e-23, 0.9999980926513672, -8.104369044303894e-06, 2.3716318293532334e-21, -8.185290172332878e-24, 1.0, -0.0013341886224225163, 4.0798026396460263e-19, 2.221328337235061e-23, 0.9999991059303284, 1.1682568583637476e-05, -2.670772529426051e-21, -1.5814073685912162e-23, 1.0, 0.0008828610880300403, -2.703057703773487e-19, 1.487355427166241e-23, 0.9999996423721313, 1.3387739805637011e-09, -2.15297841101375e-25, 1.654361619536508e-24, 1.0, -0.0023138283286243677, 7.081488054187641e-19, 4.121571037839083e-23, 0.9999973177909851, 0.0005519207334145904, -1.7124483034119725e-19, 1.9276788095710656e-23, 0.9999999403953552, -0.15305615961551666, 5.937203328396133e-16, 2.2376079293784203e-17, 0.9882175922393799, 0.15148133039474487, -5.996653923985953e-16, 1.8042410581447436e-17, 0.988460123538971, 4.6074273996055126e-05, -1.3490255965580048e-20, 9.006292426276215e-24, 1.0, 0.0019950864370912313, -6.106050826470969e-19, 9.023223905657154e-23, 0.9999980330467224, -8.104339030978736e-06, 2.37162678064344e-21, -4.8565176389232174e-24, 1.0, -0.0013341886224225163, 4.079802898139968e-19, 2.058595641046648e-23, 0.9999991059303284, 1.1682512194965966e-05, -2.6707630378516394e-21, -1.4199750307189694e-23, 1.0, 0.0008828610880300403, -2.7030582207613696e-19, 1.8137925384061185e-23, 0.9999996423721313, 1.3387737585190962e-09, -2.1529781644947173e-25, 1.6543611264984422e-24, 1.0, -0.0023138283286243677, 7.081488054187641e-19, 4.122883702385371e-23, 0.9999973177909851, 0.0005519207916222513, -1.7124483034119725e-19, 1.5861731928640184e-23, 0.9999999403953552, -0.15305614471435547, 5.937203328396133e-16, 2.2376072676339302e-17, 0.9882175922393799, 0.15148130059242249, -5.996652865194769e-16, 1.8042413890169886e-17, 0.988460123538971, 4.607428127201274e-05, -1.349028989290986e-20, 4.3033190683756676e-24, 1.0, 0.0019950864370912313, -6.106050826470969e-19, 9.202347711506431e-23, 0.9999980330467224, -8.104339940473437e-06, 2.371623751417564e-21, -9.892959461970148e-24, 1.0, -0.0013341885060071945, 4.0798026396460263e-19, 1.728376888399322e-23, 0.9999991059303284, 1.1682512194965966e-05, -2.6707598066773716e-21, -1.736165627660931e-23, 1.0, 0.0008828611462377012, -2.7030582207613696e-19, 1.4922468380951545e-23, 0.9999997019767761, 1.3387735364744913e-09, -2.152988764813131e-25, 1.9105227399310081e-31, 1.0, -0.0023138283286243677, 7.081488571175524e-19, 3.80569756298102e-23, 0.9999973177909851, 0.0005519206752069294, -1.712448044918031e-19, 1.6210600930808745e-23, 0.9999998807907104, -0.15305615961551666, 5.937203328396133e-16, 2.2376085911229103e-17, 0.9882175922393799, 0.15148131549358368, -5.996652865194769e-16, 1.8042420507614787e-17, 0.988460123538971, 4.6074273996055126e-05, -1.349026323572215e-20, 3.920071113527122e-24, 1.0, 0.001995085971429944, -6.106050826470969e-19, 9.359029371235255e-23, 0.9999980330467224, -8.104339940473437e-06, 2.3716253670046978e-21, -9.78456366270554e-24, 1.0, -0.0013341885060071945, 4.0798026396460263e-19, 2.381415509491725e-23, 0.9999991059303284, 1.1682453987305053e-05, -2.670737188457497e-21, -1.757895432383968e-23, 1.0, 0.0008828611462377012, -2.703057962267428e-19, 1.6489584745383777e-23, 0.9999996423721313, 1.3387736474967937e-09, -2.152947103096574e-25, -1.6543612251060553e-24, 1.0, -0.0023138283286243677, 7.081488571175524e-19, 3.771941889302251e-23, 0.9999973177909851, 0.0005519205587916076, -1.7124479156710603e-19, 1.4070143615905502e-23, 0.9999998807907104, -0.15305621922016144, 5.937204387187318e-16, 2.2376102454841354e-17, 0.9882175922393799, 0.15148138999938965, -5.996653923985953e-16, 1.8042433742504588e-17, 0.988460123538971, 4.60741575807333e-05, -1.3490346438459546e-20, 1.3940951865457457e-23, 1.0, 0.0019950871355831623, -6.106053411410383e-19, 9.042126275123698e-23, 0.9999980330467224, -8.104426342470106e-06, 2.371609009184967e-21, 3.423807395522541e-24, 1.0, -0.0013341887388378382, 4.0798034151278506e-19, 2.044714213469655e-23, 0.9999991059303284, 1.1682279364322312e-05, -2.6707145702376226e-21, -5.945488448191532e-24, 1.0, 0.0008828614372760057, -2.7030595132310767e-19, 2.6489157180972735e-23, 0.9999996423721313, 1.3387534414377456e-09, -2.153126815471545e-25, 1.6543645777649025e-24, 1.0, -0.0023138278629630804, 7.081489088163407e-19, 3.1045712432837925e-23, 0.9999973177909851, 0.0005519209080375731, -1.7124477864240896e-19, 1.918318501614075e-23, 0.9999999403953552]
    s (float, 77):  [0.699999988079071, 1.0, 1.0, 0.9999999403953552, 1.0, 1.0, 0.9999999403953552, 1.0, 0.9999999403953552, 0.9999999403953552, 1.0, 0.7444444298744202, 1.0, 0.9999999403953552, 0.9999999403953552, 1.0, 1.0, 0.9999999403953552, 1.0, 1.0, 1.0, 0.9999999403953552, 0.855555534362793, 0.9999999403953552, 0.9999999403953552, 0.9999999403953552, 0.9999999403953552, 1.0, 0.9999999403953552, 0.9999999403953552, 0.9999999403953552, 0.9999999403953552, 0.9999999403953552, 1.0, 0.9999998807907104, 1.0, 1.0, 1.0000001192092896, 0.9999998807907104, 0.9999999403953552, 1.0000001192092896, 1.0, 1.0, 1.0, 1.144444465637207, 0.9999998807907104, 0.9999999403953552, 0.9999999403953552, 0.9999999403953552, 0.9999998807907104, 0.9999998807907104, 0.9999999403953552, 0.9999999403953552, 0.9999999403953552, 0.9999999403953552, 1.2555553913116455, 0.9999998807907104, 0.9999999403953552, 0.9999999403953552, 1.0000001192092896, 0.9999998807907104, 0.9999997615814209, 1.0000001192092896, 0.9999999403953552, 0.9999999403953552, 1.0, 1.2999999523162842, 0.9999998807907104, 1.0, 1.0, 1.0000001192092896, 0.9999999403953552, 0.9999997615814209, 1.0000001192092896, 0.9999999403953552, 0.9999999403953552, 1.0]
