﻿#k_khugdihr
##d_khugdihr
###c_khugdihr
6301 = {

    # Misc
    culture = darkscale
    religion = nimrithani
	holding = castle_holding

    # History

}
6467 = {

    # Misc
    culture = darkscale
    religion = nimrithani
	holding = city_holding

    # History

}
6468 = {

    # Misc
    culture = darkscale
    religion = nimrithani
	holding = none

    # History

}
6469 = {

    # Misc
    culture = darkscale
    religion = nimrithani
	holding = church_holding

    # History

}
6470 = {

    # Misc
    culture = darkscale
    religion = nimrithani
	holding = none

    # History

}

###c_dwarovrod_1
6302 = {

    # Misc
    culture = darkscale
    religion = nimrithani
	holding = castle_holding

    # History

}
6471 = {

    # Misc
    culture = darkscale
    religion = nimrithani
	holding = none

    # History

}
6472 = {

    # Misc
    culture = darkscale
    religion = nimrithani
	holding = none

    # History

}

###c_khugscave
6303 = {

    # Misc
    culture = darkscale
    religion = nimrithani
	holding = castle_holding

    # History

}
6473 = {

    # Misc
    culture = darkscale
    religion = nimrithani
	holding = none

    # History

}
6474 = {

    # Misc
    culture = darkscale
    religion = nimrithani
	holding = none

    # History

}

###c_outer_khugscave
6304 = {

    # Misc
    culture = darkscale
    religion = nimrithani
	holding = castle_holding

    # History

}
6475 = {

    # Misc
    culture = darkscale
    religion = nimrithani
	holding = none

    # History

}
6476 = {

    # Misc
    culture = darkscale
    religion = nimrithani
	holding = none

    # History

}