#k_adderodd
##d_adderodd
###c_adderodd
6433 = {

    # Misc
    culture = greenscale
    religion = kobold_dragon_cult
	holding = tribal_holding

    # History
}
6434 = {
    # Misc
    holding = none

    # History
}
###c_ooispoddoddod
180 = {

    # Misc
    culture = greenscale
    religion = kobold_dragon_cult
	holding = tribal_holding

    # History
}
6435 = {
    # Misc
    holding = none

    # History
}
###c_middanbit
182 = {

    # Misc
    culture = greenscale
    religion = kobold_dragon_cult
	holding = tribal_holding

    # History
}
6437 = {
    # Misc
    holding = none

    # History
}
3070 = {
    # Misc
    holding = none

    # History
}
###c_moorbobb
184 = {

    # Misc
    culture = greenscale
    religion = kobold_dragon_cult
	holding = tribal_holding

    # History
}
6438 = {
    # Misc
    holding = none

    # History
}
6439 = {
    # Misc
    holding = none

    # History
}
6440 = {
    # Misc
    holding = none

    # History
}
##d_royoddan
###c_royoddan
187 = {

    # Misc
    culture = bluescale
    religion = kobold_dragon_cult
	holding = tribal_holding

    # History
}
6444 = {
    # Misc
    holding = none

    # History
}
###c_foddimadd
183 = {

    # Misc
    culture = bluescale
    religion = kobold_dragon_cult
	holding = tribal_holding

    # History
}
6431 = {
    # Misc
    holding = none

    # History
}
6442 = {
    # Misc
    holding = none

    # History
}
6443 = {
    # Misc
    holding = none

    # History
}
###c_rookraatcloof
6436 = {

    # Misc
    culture = bluescale
    religion = kobold_dragon_cult
	holding = tribal_holding

    # History
}
6441 = {
    # Misc
    holding = none

    # History
}
3069 = {
    # Misc
    holding = none

    # History
}
